cayenne_lpp.c:21:6:cayenne_lpp_reset	16	static
cayenne_lpp.c:27:6:cayenne_lpp_add_digital_input	16	static
cayenne_lpp.c:37:6:cayenne_lpp_add_digital_output	16	static
cayenne_lpp.c:47:6:cayenne_lpp_add_analog_input	32	static
cayenne_lpp.c:59:6:cayenne_lpp_add_analog_output	32	static
cayenne_lpp.c:71:6:cayenne_lpp_add_luminosity	16	static
cayenne_lpp.c:82:6:cayenne_lpp_add_presence	16	static
cayenne_lpp.c:92:6:cayenne_lpp_add_temperature	32	static
cayenne_lpp.c:104:6:cayenne_lpp_add_relative_humidity	32	static
cayenne_lpp.c:115:6:cayenne_lpp_add_accelerometer	40	static
cayenne_lpp.c:134:6:cayenne_lpp_add_barometric_pressure	32	static
cayenne_lpp.c:146:6:cayenne_lpp_add_gyrometer	40	static
cayenne_lpp.c:165:6:cayenne_lpp_add_gps	48	static
